{
    "name": "TicTacToe",
    "rootNamespace": "",
    "references": [
        "GUID:08e6689c998055f48a01416c31517e32"
    ],
    "includePlatforms": [],
    "excludePlatforms": [],
    "allowUnsafeCode": false,
    "overrideReferences": false,
    "precompiledReferences": [],
    "autoReferenced": true,
    "defineConstraints": [],
    "versionDefines": [],
    "noEngineReferences": false
}